<?xml version="1.0" encoding="UTF-8"?>
<svg width="150px" height="22px" viewBox="0 0 150 22" version="1.1" xmlns="http://www.w3.org/2000/svg" xmlns:xlink="http://www.w3.org/1999/xlink">
    <!-- Generator: Sketch 51.3 (57544) - http://www.bohemiancoding.com/sketch -->
    <title>Cloud Enterprise_Wordmark_Blue</title>
    <desc>Created with Sketch.</desc>
    <defs></defs>
    <g id="Page-1" stroke="none" stroke-width="1" fill="none" fill-rule="evenodd">
        <g id="常见问题指导书TKE" transform="translate(-56.000000, -233.000000)" fill-rule="nonzero">
            <g id="Cloud-Enterprise_Wordmark_Blue" transform="translate(56.000000, 232.000000)">
                <g id="Logo_Edit" transform="translate(0.000000, 1.000000)">
                    <path d="M25.6592072,17.5518018 C24.8426598,18.312974 23.7647374,18.7311005 22.6484929,18.7196589 C21.9359929,18.7196589 21.1002786,18.7196589 20.7199215,18.7196589 L12.4217072,18.7196589 L18.3734929,12.9660875 C18.6467072,12.7035875 19.2842072,12.1143018 19.8199215,11.6321589 C20.605869,10.8467696 21.6661192,10.3973157 22.7770643,10.3785875 C23.8815085,10.3983587 24.9346998,10.8480791 25.7127786,11.6321589 C27.3249498,13.2864761 27.2962105,15.9328861 25.6484929,17.5518018 L25.6592072,17.5518018 Z M27.6359929,9.75180178 C26.3520286,8.4338184 24.5902906,7.69010223 22.7502786,7.68930178 C21.158745,7.69189668 19.6202522,8.26170884 18.4109929,9.29644463 C17.8752786,9.74108749 17.2967072,10.2714446 16.5788501,10.9678732 C16.2199215,11.3107303 5.86456434,21.3446589 5.86456434,21.3446589 C6.51180343,21.4192465 7.16307717,21.4532415 7.81456434,21.4464446 L20.8431358,21.4464446 C21.8449215,21.4464446 22.4984929,21.4464446 23.1949215,21.3928732 C24.8265552,21.3053248 26.3706968,20.6275019 27.5395643,19.4857303 C28.848357,18.2112054 29.5954304,16.4677584 29.6155375,14.641027 C29.6356447,12.8142955 28.9271284,11.0548266 27.6467072,9.75180178 L27.6359929,9.75180178 Z" id="Shape" fill="#00A3FF"></path>
                    <path d="M10.9699215,9.11430178 C9.79238514,8.19687223 8.34301478,7.69741431 6.85027863,7.69465892 C4.06097793,7.70405505 1.55395013,9.3982621 0.504871731,11.9827778 C-0.544206671,14.5672934 0.0727229645,17.5295432 2.06635006,19.4803732 C3.10673856,20.495579 4.44943742,21.1443621 5.89135006,21.3285875 L8.56992149,18.7571589 C8.13599292,18.7571589 7.49849292,18.7571589 6.96277863,18.7571589 C5.84498837,18.7683299 4.76549078,18.3503361 3.9467072,17.5893018 C2.31952051,15.9722117 2.29089982,13.3486479 3.88242149,11.6964446 C4.6736641,10.9059265 5.7425967,10.456052 6.86099292,10.4428732 C7.9117254,10.4671098 8.91825362,10.8704821 9.69492149,11.5785875 C10.2306358,12.0232303 11.4092072,13.0625161 11.9288501,13.5339446 C11.9557326,13.5544854 11.993039,13.5544854 12.0199215,13.5339446 L13.8520643,11.7446589 C13.8678369,11.7324867 13.8770745,11.7136894 13.8770745,11.6937661 C13.8770745,11.6738428 13.8678369,11.6550454 13.8520643,11.6428732 C12.9681358,10.8446589 11.7092072,9.7303732 10.9699215,9.17323035" id="Shape" fill="#00C8DC"></path>
                    <path d="M23.4788501,6.14108749 C22.077658,2.16529947 18.1532023,-0.349153712 13.9556781,0.0394590575 C9.75815382,0.428071827 6.36202853,3.62027482 5.71456434,7.78573035 C6.09000388,7.72371495 6.46975787,7.69147169 6.85027863,7.68930178 C7.37347019,7.68916621 7.89487794,7.75029678 8.40385006,7.87144463 L8.43063577,7.87144463 C9.0046651,5.11910254 11.281055,3.04643279 14.0750051,2.73220475 C16.8689553,2.4179767 19.5488685,3.93322439 20.7199215,6.48930178 C20.7317887,6.51629404 20.7604971,6.53175245 20.7895643,6.52680178 C21.6342698,6.29129795 22.5127928,6.20072857 23.3877786,6.25894463 C23.4734929,6.25894463 23.5109929,6.21608749 23.4788501,6.13573035" id="Shape" fill="#006EFF"></path>
                </g>
                <g id="Wordmark" transform="translate(35.000000, 5.000000)" fill="#000000">
                    <polygon id="Shape" points="0.255463259 0.786325879 9.82479233 0.786325879 9.82479233 2.5713738 6.06607029 2.5713738 6.06607029 12.6099681 3.99578275 12.6099681 3.99578275 2.5713738 0.255463259 2.5713738"></polygon>
                    <polygon id="Shape" points="11.2003834 0.786325879 13.2706709 0.786325879 13.2706709 6.16907348 18.5384026 0.786325879 21.0871565 0.786325879 16.366901 5.50658147 21.4276038 12.6099681 18.8466454 12.6099681 14.9591054 6.96038339 13.2706709 8.63501597 13.2706709 12.6099681 11.2003834 12.6099681"></polygon>
                    <polygon id="Shape" points="22.5271565 0.786325879 31.0429393 0.786325879 31.0429393 2.5713738 24.6020447 2.5713738 24.6020447 5.67220447 30.5828754 5.67220447 30.5828754 7.36063898 24.6020447 7.36063898 24.6020447 10.8019169 31.1763578 10.8019169 31.1763578 12.5915655 22.5271565 12.5915655"></polygon>
                    <path d="M36.4762939,4.04817891 L37.8840895,4.04817891 L37.8840895,3.33507987 C37.8681844,2.88803081 37.9352592,2.44190492 38.0819169,2.01929712 C38.1931404,1.71663952 38.3819355,1.44851866 38.629393,1.24178914 C38.847963,1.06071964 39.106655,0.934528455 39.3838978,0.873738019 C39.6759763,0.813467554 39.9735967,0.784168137 40.2718211,0.786325879 C40.7165423,0.769601944 41.1616176,0.80823695 41.5968051,0.901341853 L41.5968051,2.37354633 C41.4680658,2.34110749 41.3374735,2.3165254 41.2057508,2.2999361 C41.0433617,2.28952027 40.8804721,2.28952027 40.7180831,2.2999361 C40.4873122,2.29336526 40.2598342,2.35584159 40.0647923,2.47936102 C39.8578615,2.65490962 39.7539537,2.92333815 39.788754,3.19246006 L39.788754,4.07118211 L41.3897764,4.07118211 L41.3897764,5.47897764 L39.7841534,5.47897764 L39.7841534,12.6099681 L37.8978914,12.6099681 L37.8978914,5.45597444 L36.4900958,5.45597444 L36.4762939,4.04817891 Z" id="Shape"></path>
                    <path d="M46.4504792,12.84 C45.8206972,12.8531948 45.1947456,12.7389586 44.6102236,12.5041534 C44.0891179,12.3007002 43.6182602,11.986795 43.2300319,11.5840256 C42.8533617,11.1740311 42.5665857,10.6898029 42.388115,10.1624281 C42.1872548,9.57002913 42.0892273,8.94763197 42.0982748,8.32217252 C42.0919926,7.70743817 42.1899951,7.09608902 42.388115,6.51412141 C42.5665857,5.98674662 42.8533617,5.50251841 43.2300319,5.09252396 C43.6182602,4.68975452 44.0891179,4.37584934 44.6102236,4.17239617 C45.7867598,3.71642663 47.0911955,3.71642663 48.2677316,4.17239617 C48.7888373,4.37584934 49.2596951,4.68975452 49.6479233,5.09252396 C50.0245936,5.50251841 50.3113696,5.98674662 50.4898403,6.51412141 C50.6879601,7.09608902 50.7859627,7.70743817 50.7796805,8.32217252 C50.788728,8.94763197 50.6907004,9.57002913 50.4898403,10.1624281 C50.3159053,10.6813334 50.0371662,11.1589481 49.6709265,11.565623 C49.2826983,11.9683924 48.8118405,12.2822976 48.2907348,12.4857508 C47.7075569,12.7269751 47.0815336,12.8474846 46.4504792,12.84 Z M46.4504792,11.349393 C46.8306212,11.358957 47.2066102,11.2685293 47.5408307,11.0871565 C47.8437284,10.9150384 48.1045863,10.677752 48.3045367,10.3924601 C48.5092433,10.0976566 48.6603143,9.76903836 48.7507987,9.42172524 C48.9409491,8.70258082 48.9409491,7.94636487 48.7507987,7.22722045 C48.6649172,6.87990766 48.5168404,6.55102128 48.313738,6.25648562 C48.1120829,5.97513758 47.8514486,5.74119474 47.5500319,5.57099042 C46.86509,5.21500464 46.0496704,5.21500464 45.3647284,5.57099042 C45.0657611,5.74106381 44.808107,5.97515196 44.6102236,6.25648562 C44.3989996,6.54932729 44.2430827,6.87831195 44.1501597,7.22722045 C43.9600094,7.94636487 43.9600094,8.70258082 44.1501597,9.42172524 C44.2448787,9.76997255 44.4006485,10.0986469 44.6102236,10.3924601 C44.8088688,10.6788985 45.0700138,10.9164461 45.3739297,11.0871565 C45.7042168,11.2657982 46.0750368,11.3561261 46.4504792,11.349393 Z" id="Shape"></path>
                    <path d="M52.3576997,4.04817891 L54.1289457,4.04817891 L54.1289457,5.70440895 L54.1611502,5.70440895 C54.2240737,5.45812742 54.3350855,5.22672266 54.4877955,5.02351438 C54.6505202,4.79536145 54.8458251,4.59230635 55.067476,4.42083067 C55.2933158,4.23123316 55.5460351,4.07619067 55.8173802,3.96076677 C56.086393,3.85202762 56.3737398,3.7958076 56.6638978,3.79514377 C56.81715,3.78721727 56.9707095,3.78721727 57.1239617,3.79514377 L57.3815974,3.82734824 L57.3815974,5.66760383 C57.2481789,5.64460064 57.1147604,5.62619808 56.9767412,5.61239617 C56.8410109,5.59420339 56.7042284,5.5849821 56.5672843,5.58479233 C56.250056,5.58032639 55.9357906,5.64632213 55.6471565,5.77801917 C55.3623228,5.90673989 55.1105785,6.09869493 54.9110543,6.33929712 C54.6872608,6.61083689 54.518496,6.92336443 54.4141853,7.25942492 C54.2865774,7.66566375 54.2244581,8.08962798 54.2301597,8.51539936 L54.2301597,12.5915655 L52.3438978,12.5915655 L52.3576997,4.04817891 Z" id="Shape"></path>
                    <path d="M66.2332268,0.786325879 L68.4369329,0.786325879 L72.9915655,12.6099681 L70.7740575,12.6099681 L69.6607029,9.48153355 L64.9266454,9.48153355 L63.8178914,12.6099681 L61.6831949,12.6099681 L66.2332268,0.786325879 Z M65.5063259,7.90811502 L69.1178275,7.90811502 L67.3419808,2.81980831 L67.2959744,2.81980831 L65.5063259,7.90811502 Z" id="Shape"></path>
                    <polygon id="Shape" points="73.8886901 0.786325879 75.7749521 0.786325879 75.7749521 12.6099681 73.8886901 12.6099681"></polygon>
                    <path d="M85.0038339,10.7053035 C84.991355,10.8756107 85.0213924,11.0463497 85.091246,11.2021725 C85.1751785,11.3128669 85.312605,11.369247 85.4500958,11.349393 L85.6479233,11.349393 C85.7377964,11.3487168 85.827307,11.3379138 85.9147604,11.3171885 L85.9147604,12.6421725 L85.6571246,12.7157827 L85.3350799,12.789393 C85.2246645,12.8123962 85.1142492,12.8261981 85.0038339,12.84 L84.7185942,12.84 C84.384387,12.8542619 84.0528722,12.7745708 83.7616613,12.6099681 C83.4817977,12.4279201 83.2965927,12.1315922 83.2555911,11.8002556 C82.8656526,12.1709054 82.392271,12.4423108 81.8753994,12.5915655 C81.3630018,12.7519886 80.8296859,12.8357068 80.2927796,12.84 C79.9175432,12.8422257 79.5440008,12.7895267 79.1840256,12.6835783 C78.8511975,12.5892353 78.539069,12.433171 78.2638978,12.2235144 C77.9897776,12.0187063 77.7675833,11.7523883 77.6152077,11.4460064 C77.4445911,11.1033662 77.3593575,10.7245505 77.3667732,10.341853 C77.347739,9.89291119 77.4477307,9.44691651 77.6566134,9.04907348 C77.8396217,8.72819136 78.1027663,8.4602911 78.4203195,8.2715655 C78.7478711,8.07830246 79.1055655,7.94144548 79.4784665,7.86670927 C79.8695208,7.78389776 80.2651757,7.71948882 80.6608307,7.67348243 C81.0564856,7.62747604 81.332524,7.56306709 81.6407668,7.53546326 C81.9173585,7.5117699 82.1913635,7.46404992 82.4596805,7.39284345 C82.6708153,7.34173356 82.8645402,7.23534366 83.0209585,7.08460064 C83.1709321,6.91397991 83.2455937,6.68999513 83.2279872,6.46351438 C83.23701,6.25247325 83.1772747,6.04420678 83.0577636,5.87003195 C82.9440236,5.7178926 82.7958118,5.59490831 82.6253035,5.51118211 C82.4444178,5.42796674 82.2521502,5.37214711 82.0548243,5.34555911 C81.8565755,5.31876857 81.6567904,5.30493729 81.4567412,5.30415335 C80.9983015,5.2854748 80.5443289,5.40056646 80.1501597,5.63539936 C79.8038501,5.86427189 79.5896023,6.24648991 79.5750799,6.66134185 L77.6842173,6.66134185 C77.6976584,6.17465813 77.8354498,5.69951512 78.0844728,5.28115016 C78.3073221,4.9241327 78.6096192,4.62340998 78.9677955,4.40242812 C79.3431068,4.17678761 79.7561507,4.02092199 80.1869649,3.94236422 C80.6417503,3.85417855 81.1039005,3.80950404 81.5671565,3.80894569 C81.9847811,3.80910751 82.401196,3.85383357 82.8093291,3.94236422 C83.1990393,4.02353918 83.5723053,4.16973503 83.9134824,4.37482428 C84.2322372,4.56582374 84.5017023,4.82898554 84.7001917,5.14313099 C84.9069668,5.4903847 85.0106843,5.88929824 84.9992332,6.29329073 L85.0038339,10.7053035 Z M83.1129712,8.32217252 C82.7929645,8.51883165 82.4296694,8.63413836 82.0548243,8.65801917 C81.6361661,8.69942492 81.2129073,8.75463259 80.7942492,8.83284345 C80.5978129,8.86623157 80.4040725,8.91389787 80.2145687,8.97546326 C80.0362696,9.03003508 79.8683366,9.11400161 79.7176997,9.22389776 C79.5723175,9.33226509 79.4554765,9.47436904 79.3772524,9.63795527 C79.2893612,9.83291043 79.2468875,10.0452786 79.2530351,10.2590415 C79.2490704,10.4517416 79.3143672,10.63947 79.4370607,10.788115 C79.5636802,10.9338688 79.7207236,11.0500809 79.8971246,11.1285623 C80.0769842,11.2121402 80.2673437,11.2709504 80.4630032,11.3033866 C80.6455341,11.3332041 80.8301313,11.3485872 81.0150799,11.349393 C81.2444188,11.3472062 81.4727972,11.3194305 81.6959744,11.2665815 C81.9388317,11.2128973 82.1706883,11.1179761 82.3814696,10.9859425 C82.5945567,10.857075 82.7779923,10.6846142 82.9197444,10.4798722 C83.0702174,10.2594863 83.1460088,9.99663526 83.1359744,9.72996805 L83.1129712,8.32217252 Z" id="Shape"></path>
                    <path d="M94.559361,12.6099681 L92.7191054,12.6099681 L92.7191054,11.4184026 L92.6823003,11.4184026 C92.4446034,11.856284 92.085038,12.2158494 91.6471565,12.4535463 C91.2281316,12.6992656 90.7526624,12.8323969 90.2669649,12.84 C89.1413419,12.84 88.3270288,12.5624281 87.8240256,12.0072843 C87.2693125,11.2873963 87.0005593,10.3877287 87.0695208,9.48153355 L87.0695208,4.04817891 L88.9603834,4.04817891 L88.9603834,9.29750799 C88.9057977,9.86239804 89.0578043,10.4279282 89.3882428,10.8893291 C89.7068808,11.2091758 90.1475619,11.3767352 90.5982109,11.349393 C90.9384296,11.3606895 91.2771628,11.2995293 91.5919489,11.1699681 C91.8433508,11.0603961 92.0655355,10.8933636 92.240639,10.6823003 C92.410916,10.463934 92.53178,10.2112184 92.5948882,9.94159744 C92.6687643,9.64056752 92.7043173,9.33141099 92.7007029,9.02146965 L92.7007029,4.04817891 L94.5915655,4.04817891 L94.559361,12.6099681 Z" id="Shape"></path>
                    <path d="M104.611757,12.6099681 L102.822109,12.6099681 L102.822109,11.450607 L102.789904,11.450607 C102.557291,11.9256726 102.164721,12.3035825 101.68115,12.5179553 C101.195995,12.7331739 100.670677,12.8429419 100.139936,12.84 C99.5334919,12.8551136 98.9313756,12.7340615 98.3778914,12.4857508 C97.89218,12.2618637 97.4641335,11.9298128 97.1265176,11.515016 C96.7831744,11.0869718 96.5296863,10.5940782 96.3812141,10.0658147 C96.2119378,9.48292091 96.1282521,8.8785244 96.1327796,8.2715655 C96.118927,7.5897873 96.2248137,6.91086645 96.445623,6.2656869 C96.6284408,5.75369516 96.9132993,5.2841482 97.2829393,4.88549521 C97.6164749,4.53321982 98.023221,4.25839142 98.4745048,4.08038339 C98.9146316,3.90972971 99.3826434,3.8223675 99.8546965,3.8227476 C100.127942,3.82411323 100.400499,3.85029103 100.66901,3.90095847 C100.941647,3.94771948 101.207441,4.02807584 101.460319,4.14019169 C101.714055,4.2467532 101.951121,4.38930276 102.164217,4.56345048 C102.377798,4.7310099 102.560035,4.93505201 102.702492,5.16613419 L102.739297,5.16613419 L102.739297,0.786325879 L104.625559,0.786325879 L104.611757,12.6099681 Z M98.0190415,8.41878594 C98.0182979,8.78239424 98.0662643,9.14446375 98.1616613,9.49533546 C98.2455364,9.83318671 98.3905458,10.1528313 98.5895208,10.4384665 C98.7821443,10.7133603 99.0356262,10.9400771 99.3302236,11.1009585 C100.004337,11.4412878 100.800008,11.4412878 101.474121,11.1009585 C101.772511,10.9295693 102.027511,10.6918839 102.219425,10.406262 C102.416109,10.109314 102.560796,9.78104481 102.647284,9.43552716 C102.74299,9.07687998 102.790944,8.70717027 102.789904,8.33597444 C102.839039,7.54372563 102.613151,6.75880598 102.150415,6.11386581 C101.734346,5.58708818 101.091317,5.29122638 100.420575,5.31795527 C100.029598,5.30510658 99.6426834,5.40064092 99.3026198,5.59399361 C99.0024116,5.77089722 98.7472994,6.01498604 98.5573163,6.30709265 C98.3587389,6.60972779 98.218321,6.94673085 98.1432588,7.30083067 C98.0610708,7.6678146 98.0194156,8.04271158 98.0190415,8.41878594 Z" id="Shape"></path>
                    <path d="M113.836038,10.7053035 C113.824607,10.8760191 113.856246,11.0468711 113.928051,11.2021725 C114.010508,11.3121029 114.146217,11.3685017 114.2823,11.349393 L114.484728,11.349393 C114.573082,11.3486859 114.661065,11.337881 114.746965,11.3171885 L114.746965,12.6421725 L114.489329,12.7157827 L114.167284,12.789393 C114.056869,12.8123962 113.946454,12.8261981 113.836038,12.84 L113.555399,12.84 C113.219718,12.8543884 112.886691,12.774717 112.593866,12.6099681 C112.320187,12.4234273 112.139357,12.128742 112.096997,11.8002556 C111.707385,12.1713438 111.23389,12.4428143 110.716805,12.5915655 C110.204331,12.7516603 109.671064,12.8353708 109.134185,12.84 C108.758927,12.842558 108.385336,12.7898523 108.025431,12.6835783 C107.692956,12.5883279 107.380989,12.4323445 107.105304,12.2235144 C106.832622,12.0184238 106.611987,11.7520865 106.461214,11.4460064 C106.294499,11.1039589 106.21245,10.7268475 106.221981,10.3464537 C106.20071,9.89731483 106.300832,9.45074042 106.511821,9.05367412 C106.693044,8.73298188 106.954666,8.46501765 107.270927,8.27616613 C107.600122,8.08289678 107.959328,7.94605638 108.333674,7.8713099 C108.724728,7.7884984 109.120383,7.72408946 109.516038,7.67808307 C109.911693,7.63207668 110.183131,7.56766773 110.491374,7.5400639 C110.769477,7.51635865 111.045009,7.46864085 111.314888,7.39744409 C111.525626,7.34531397 111.7191,7.23906185 111.876166,7.08920128 C112.02614,6.91858055 112.100801,6.69459577 112.083195,6.46811502 C112.090872,6.25655709 112.029509,6.04824479 111.908371,5.87463259 C111.797395,5.72168425 111.650444,5.59843517 111.480511,5.51578275 C111.298012,5.43257849 111.10423,5.37676931 110.905431,5.35015974 C110.708735,5.3232666 110.510474,5.30943439 110.311949,5.30875399 C109.852126,5.29076585 109.396873,5.40577722 109.000767,5.64 C108.649797,5.86545453 108.427576,6.24494108 108.402684,6.66134185 L106.516422,6.66134185 C106.528466,6.1750679 106.664666,5.69995252 106.912077,5.28115016 C107.137899,4.92495148 107.441468,4.62452824 107.8,4.40242812 C108.174953,4.17604797 108.588136,4.02012977 109.019169,3.94236422 C109.473955,3.85417855 109.936105,3.80950404 110.399361,3.80894569 C110.816959,3.80959247 111.233323,3.85431303 111.641534,3.94236422 C112.030033,4.02275205 112.401915,4.16901542 112.741086,4.37482428 C113.059841,4.56582374 113.329306,4.82898554 113.527796,5.14313099 C113.736742,5.48947408 113.840628,5.88903612 113.826837,6.29329073 L113.836038,10.7053035 Z M111.949776,8.32217252 C111.628414,8.51954684 111.263453,8.63488095 110.887029,8.65801917 C110.468371,8.69942492 110.049712,8.75463259 109.631054,8.83284345 C109.434618,8.86623157 109.240878,8.91389787 109.051374,8.97546326 C108.873075,9.03003508 108.705142,9.11400161 108.554505,9.22389776 C108.409123,9.33226509 108.292282,9.47436904 108.214058,9.63795527 C108.126166,9.83291043 108.083693,10.0452786 108.08984,10.2590415 C108.083756,10.4520713 108.149306,10.6405266 108.273866,10.788115 C108.393838,10.9312283 108.542803,11.0472645 108.710927,11.1285623 C108.889188,11.2121168 109.078026,11.270935 109.272204,11.3033866 C109.456302,11.3330339 109.642415,11.3484151 109.828882,11.349393 C110.058203,11.3469409 110.286552,11.3191687 110.509776,11.2665815 C110.752109,11.2112306 110.983695,11.1164202 111.195272,10.9859425 C111.408359,10.857075 111.591794,10.6846142 111.733546,10.4798722 C111.881993,10.2585377 111.95759,9.99635935 111.949776,9.72996805 L111.949776,8.32217252 Z" id="Shape"></path>
                </g>
            </g>
        </g>
    </g>
</svg>